info face="Arial Black" size=8 bold=0 italic=0 charset="" unicode=0 stretchH=100 smooth=1 aa=1 padding=0,0,0,0 spacing=0,0
common lineHeight=12 base=9 scaleW=512 scaleH=512 pages=1 packed=0
page id=0 file="font.arial.8.png"
chars count=95
char id=32   x=0     y=0     width=0     height=0     xoffset=0     yoffset=9    xadvance=3     page=0  chnl=0 
char id=36   x=0     y=0     width=7     height=9     xoffset=0     yoffset=2    xadvance=5     page=0  chnl=0 
char id=124   x=7     y=0     width=3     height=9     xoffset=0     yoffset=3    xadvance=2     page=0  chnl=0 
char id=125   x=10     y=0     width=5     height=9     xoffset=-1     yoffset=3    xadvance=3     page=0  chnl=0 
char id=123   x=15     y=0     width=5     height=9     xoffset=0     yoffset=3    xadvance=3     page=0  chnl=0 
char id=93   x=20     y=0     width=4     height=9     xoffset=0     yoffset=3    xadvance=3     page=0  chnl=0 
char id=91   x=24     y=0     width=4     height=9     xoffset=0     yoffset=3    xadvance=3     page=0  chnl=0 
char id=41   x=28     y=0     width=4     height=9     xoffset=0     yoffset=3    xadvance=3     page=0  chnl=0 
char id=40   x=32     y=0     width=4     height=9     xoffset=0     yoffset=3    xadvance=3     page=0  chnl=0 
char id=106   x=36     y=0     width=5     height=9     xoffset=-1     yoffset=3    xadvance=3     page=0  chnl=0 
char id=38   x=41     y=0     width=8     height=8     xoffset=0     yoffset=3    xadvance=7     page=0  chnl=0 
char id=35   x=49     y=0     width=7     height=8     xoffset=0     yoffset=3    xadvance=5     page=0  chnl=0 
char id=37   x=56     y=0     width=9     height=8     xoffset=0     yoffset=3    xadvance=8     page=0  chnl=0 
char id=92   x=65     y=0     width=4     height=8     xoffset=-1     yoffset=3    xadvance=2     page=0  chnl=0 
char id=64   x=69     y=0     width=8     height=8     xoffset=-1     yoffset=3    xadvance=6     page=0  chnl=0 
char id=47   x=77     y=0     width=4     height=8     xoffset=0     yoffset=3    xadvance=2     page=0  chnl=0 
char id=59   x=81     y=0     width=4     height=8     xoffset=0     yoffset=4    xadvance=3     page=0  chnl=0 
char id=48   x=85     y=0     width=7     height=8     xoffset=0     yoffset=3    xadvance=5     page=0  chnl=0 
char id=57   x=92     y=0     width=7     height=8     xoffset=0     yoffset=3    xadvance=5     page=0  chnl=0 
char id=56   x=99     y=0     width=7     height=8     xoffset=0     yoffset=3    xadvance=5     page=0  chnl=0 
char id=54   x=106     y=0     width=7     height=8     xoffset=0     yoffset=3    xadvance=5     page=0  chnl=0 
char id=53   x=113     y=0     width=7     height=8     xoffset=0     yoffset=3    xadvance=5     page=0  chnl=0 
char id=51   x=120     y=0     width=7     height=8     xoffset=0     yoffset=3    xadvance=5     page=0  chnl=0 
char id=121   x=127     y=0     width=6     height=8     xoffset=0     yoffset=4    xadvance=5     page=0  chnl=0 
char id=116   x=133     y=0     width=5     height=8     xoffset=0     yoffset=3    xadvance=4     page=0  chnl=0 
char id=113   x=138     y=0     width=6     height=8     xoffset=0     yoffset=4    xadvance=5     page=0  chnl=0 
char id=112   x=144     y=0     width=7     height=8     xoffset=0     yoffset=4    xadvance=5     page=0  chnl=0 
char id=103   x=151     y=0     width=6     height=8     xoffset=0     yoffset=4    xadvance=5     page=0  chnl=0 
char id=100   x=157     y=0     width=6     height=8     xoffset=0     yoffset=3    xadvance=5     page=0  chnl=0 
char id=98   x=163     y=0     width=7     height=8     xoffset=0     yoffset=3    xadvance=5     page=0  chnl=0 
char id=85   x=170     y=0     width=8     height=8     xoffset=0     yoffset=3    xadvance=7     page=0  chnl=0 
char id=83   x=178     y=0     width=7     height=8     xoffset=0     yoffset=3    xadvance=6     page=0  chnl=0 
char id=81   x=185     y=0     width=8     height=8     xoffset=0     yoffset=3    xadvance=7     page=0  chnl=0 
char id=79   x=193     y=0     width=8     height=8     xoffset=0     yoffset=3    xadvance=7     page=0  chnl=0 
char id=74   x=201     y=0     width=6     height=8     xoffset=0     yoffset=3    xadvance=5     page=0  chnl=0 
char id=71   x=207     y=0     width=8     height=8     xoffset=0     yoffset=3    xadvance=7     page=0  chnl=0 
char id=67   x=215     y=0     width=7     height=8     xoffset=0     yoffset=3    xadvance=6     page=0  chnl=0 
char id=127   x=222     y=0     width=6     height=7     xoffset=0     yoffset=3    xadvance=6     page=0  chnl=0 
char id=43   x=228     y=0     width=6     height=7     xoffset=0     yoffset=3    xadvance=5     page=0  chnl=0 
char id=62   x=234     y=0     width=6     height=7     xoffset=0     yoffset=3    xadvance=5     page=0  chnl=0 
char id=60   x=240     y=0     width=6     height=7     xoffset=0     yoffset=3    xadvance=5     page=0  chnl=0 
char id=63   x=246     y=0     width=6     height=7     xoffset=0     yoffset=3    xadvance=5     page=0  chnl=0 
char id=33   x=252     y=0     width=4     height=7     xoffset=0     yoffset=3    xadvance=3     page=0  chnl=0 
char id=55   x=256     y=0     width=7     height=7     xoffset=0     yoffset=3    xadvance=5     page=0  chnl=0 
char id=52   x=263     y=0     width=7     height=7     xoffset=0     yoffset=3    xadvance=5     page=0  chnl=0 
char id=50   x=270     y=0     width=6     height=7     xoffset=0     yoffset=3    xadvance=5     page=0  chnl=0 
char id=49   x=276     y=0     width=5     height=7     xoffset=0     yoffset=3    xadvance=5     page=0  chnl=0 
char id=117   x=281     y=0     width=6     height=7     xoffset=0     yoffset=4    xadvance=5     page=0  chnl=0 
char id=115   x=287     y=0     width=6     height=7     xoffset=0     yoffset=4    xadvance=5     page=0  chnl=0 
char id=111   x=293     y=0     width=7     height=7     xoffset=0     yoffset=4    xadvance=5     page=0  chnl=0 
char id=108   x=300     y=0     width=4     height=7     xoffset=0     yoffset=3    xadvance=3     page=0  chnl=0 
char id=107   x=304     y=0     width=7     height=7     xoffset=0     yoffset=3    xadvance=5     page=0  chnl=0 
char id=105   x=311     y=0     width=4     height=7     xoffset=0     yoffset=3    xadvance=3     page=0  chnl=0 
char id=104   x=315     y=0     width=6     height=7     xoffset=0     yoffset=3    xadvance=5     page=0  chnl=0 
char id=102   x=321     y=0     width=5     height=7     xoffset=0     yoffset=3    xadvance=3     page=0  chnl=0 
char id=101   x=326     y=0     width=7     height=7     xoffset=0     yoffset=4    xadvance=5     page=0  chnl=0 
char id=99   x=333     y=0     width=6     height=7     xoffset=0     yoffset=4    xadvance=5     page=0  chnl=0 
char id=97   x=339     y=0     width=6     height=7     xoffset=0     yoffset=4    xadvance=5     page=0  chnl=0 
char id=90   x=345     y=0     width=7     height=7     xoffset=0     yoffset=3    xadvance=6     page=0  chnl=0 
char id=89   x=352     y=0     width=8     height=7     xoffset=0     yoffset=3    xadvance=6     page=0  chnl=0 
char id=88   x=360     y=0     width=8     height=7     xoffset=0     yoffset=3    xadvance=6     page=0  chnl=0 
char id=87   x=368     y=0     width=9     height=7     xoffset=0     yoffset=3    xadvance=8     page=0  chnl=0 
char id=86   x=377     y=0     width=8     height=7     xoffset=0     yoffset=3    xadvance=6     page=0  chnl=0 
char id=84   x=385     y=0     width=7     height=7     xoffset=0     yoffset=3    xadvance=6     page=0  chnl=0 
char id=82   x=392     y=0     width=8     height=7     xoffset=0     yoffset=3    xadvance=6     page=0  chnl=0 
char id=80   x=400     y=0     width=7     height=7     xoffset=0     yoffset=3    xadvance=6     page=0  chnl=0 
char id=78   x=407     y=0     width=8     height=7     xoffset=0     yoffset=3    xadvance=7     page=0  chnl=0 
char id=77   x=415     y=0     width=9     height=7     xoffset=0     yoffset=3    xadvance=8     page=0  chnl=0 
char id=76   x=424     y=0     width=7     height=7     xoffset=0     yoffset=3    xadvance=5     page=0  chnl=0 
char id=75   x=431     y=0     width=8     height=7     xoffset=0     yoffset=3    xadvance=7     page=0  chnl=0 
char id=73   x=439     y=0     width=4     height=7     xoffset=0     yoffset=3    xadvance=3     page=0  chnl=0 
char id=72   x=443     y=0     width=8     height=7     xoffset=0     yoffset=3    xadvance=7     page=0  chnl=0 
char id=70   x=451     y=0     width=6     height=7     xoffset=0     yoffset=3    xadvance=5     page=0  chnl=0 
char id=69   x=457     y=0     width=7     height=7     xoffset=0     yoffset=3    xadvance=6     page=0  chnl=0 
char id=68   x=464     y=0     width=7     height=7     xoffset=0     yoffset=3    xadvance=6     page=0  chnl=0 
char id=66   x=471     y=0     width=7     height=7     xoffset=0     yoffset=3    xadvance=6     page=0  chnl=0 
char id=65   x=478     y=0     width=8     height=7     xoffset=0     yoffset=3    xadvance=6     page=0  chnl=0 
char id=58   x=486     y=0     width=4     height=6     xoffset=0     yoffset=4    xadvance=3     page=0  chnl=0 
char id=122   x=490     y=0     width=6     height=6     xoffset=0     yoffset=4    xadvance=4     page=0  chnl=0 
char id=120   x=496     y=0     width=7     height=6     xoffset=0     yoffset=4    xadvance=5     page=0  chnl=0 
char id=119   x=0     y=9     width=9     height=6     xoffset=0     yoffset=4    xadvance=8     page=0  chnl=0 
char id=118   x=9     y=9     width=6     height=6     xoffset=0     yoffset=4    xadvance=5     page=0  chnl=0 
char id=114   x=15     y=9     width=5     height=6     xoffset=0     yoffset=4    xadvance=4     page=0  chnl=0 
char id=110   x=20     y=9     width=6     height=6     xoffset=0     yoffset=4    xadvance=5     page=0  chnl=0 
char id=109   x=26     y=9     width=9     height=6     xoffset=0     yoffset=4    xadvance=8     page=0  chnl=0 
char id=61   x=35     y=9     width=6     height=5     xoffset=0     yoffset=4    xadvance=5     page=0  chnl=0 
char id=94   x=41     y=9     width=6     height=5     xoffset=0     yoffset=3    xadvance=5     page=0  chnl=0 
char id=44   x=47     y=9     width=4     height=5     xoffset=0     yoffset=7    xadvance=3     page=0  chnl=0 
char id=42   x=51     y=9     width=5     height=4     xoffset=0     yoffset=3    xadvance=4     page=0  chnl=0 
char id=126   x=56     y=9     width=6     height=4     xoffset=0     yoffset=5    xadvance=5     page=0  chnl=0 
char id=39   x=62     y=9     width=3     height=4     xoffset=0     yoffset=3    xadvance=2     page=0  chnl=0 
char id=34   x=65     y=9     width=5     height=4     xoffset=0     yoffset=3    xadvance=4     page=0  chnl=0 
char id=45   x=70     y=9     width=4     height=3     xoffset=0     yoffset=6    xadvance=3     page=0  chnl=0 
char id=46   x=74     y=9     width=4     height=3     xoffset=0     yoffset=7    xadvance=3     page=0  chnl=0 
char id=96   x=78     y=9     width=3     height=3     xoffset=0     yoffset=3    xadvance=3     page=0  chnl=0 
char id=95   x=81     y=9     width=7     height=2     xoffset=-1     yoffset=9    xadvance=4     page=0  chnl=0 
kernings count=61
kerning first=121  second=44  amount=-1
kerning first=121  second=46  amount=-1
kerning first=79  second=89  amount=-1
kerning first=102  second=33  amount=1
kerning first=102  second=63  amount=1
kerning first=89  second=44  amount=-1
kerning first=89  second=45  amount=-1
kerning first=89  second=46  amount=-1
kerning first=89  second=65  amount=-1
kerning first=89  second=97  amount=-1
kerning first=89  second=100  amount=-1
kerning first=89  second=101  amount=-1
kerning first=89  second=111  amount=-1
kerning first=89  second=113  amount=-1
kerning first=86  second=44  amount=-1
kerning first=86  second=46  amount=-1
kerning first=84  second=44  amount=-1
kerning first=84  second=45  amount=-1
kerning first=84  second=46  amount=-1
kerning first=84  second=65  amount=-1
kerning first=84  second=111  amount=-1
kerning first=84  second=115  amount=-1
kerning first=80  second=44  amount=-1
kerning first=80  second=46  amount=-2
kerning first=80  second=65  amount=-1
kerning first=76  second=89  amount=-1
kerning first=70  second=44  amount=-1
kerning first=70  second=46  amount=-1
kerning first=70  second=65  amount=-1
kerning first=65  second=84  amount=-1
kerning first=65  second=89  amount=-1
kerning first=119  second=44  amount=-1
kerning first=119  second=46  amount=-1
kerning first=118  second=44  amount=-1
kerning first=118  second=46  amount=-1
kerning first=114  second=44  amount=-1
kerning first=114  second=46  amount=-1
