info face="Yellowjacket Expanded" size=16 bold=0 italic=0 charset="" unicode=0 stretchH=100 smooth=1 aa=1 padding=0,0,0,0 spacing=0,0
common lineHeight=19 base=14 scaleW=512 scaleH=512 pages=1 packed=0
page id=0 file="font.black.16.png"
chars count=94
char id=32   x=0     y=0     width=0     height=0     xoffset=0     yoffset=14    xadvance=7     page=0  chnl=0 
char id=64   x=0     y=0     width=24     height=17     xoffset=-1     yoffset=0    xadvance=21     page=0  chnl=0 
char id=62   x=24     y=0     width=8     height=17     xoffset=0     yoffset=0    xadvance=7     page=0  chnl=0 
char id=124   x=32     y=0     width=9     height=16     xoffset=0     yoffset=1    xadvance=7     page=0  chnl=0 
char id=60   x=41     y=0     width=8     height=16     xoffset=0     yoffset=0    xadvance=7     page=0  chnl=0 
char id=89   x=49     y=0     width=13     height=16     xoffset=0     yoffset=3    xadvance=11     page=0  chnl=0 
char id=121   x=62     y=0     width=13     height=15     xoffset=-1     yoffset=4    xadvance=10     page=0  chnl=0 
char id=86   x=75     y=0     width=14     height=15     xoffset=0     yoffset=2    xadvance=12     page=0  chnl=0 
char id=36   x=89     y=0     width=14     height=14     xoffset=0     yoffset=3    xadvance=12     page=0  chnl=0 
char id=125   x=103     y=0     width=9     height=13     xoffset=0     yoffset=3    xadvance=7     page=0  chnl=0 
char id=63   x=112     y=0     width=10     height=13     xoffset=0     yoffset=2    xadvance=10     page=0  chnl=0 
char id=112   x=122     y=0     width=16     height=13     xoffset=0     yoffset=3    xadvance=13     page=0  chnl=0 
char id=85   x=138     y=0     width=14     height=13     xoffset=0     yoffset=3    xadvance=12     page=0  chnl=0 
char id=78   x=152     y=0     width=17     height=13     xoffset=0     yoffset=3    xadvance=15     page=0  chnl=0 
char id=71   x=169     y=0     width=16     height=13     xoffset=0     yoffset=3    xadvance=14     page=0  chnl=0 
char id=38   x=185     y=0     width=13     height=12     xoffset=0     yoffset=3    xadvance=11     page=0  chnl=0 
char id=35   x=198     y=0     width=16     height=12     xoffset=0     yoffset=3    xadvance=15     page=0  chnl=0 
char id=37   x=214     y=0     width=13     height=12     xoffset=0     yoffset=3    xadvance=11     page=0  chnl=0 
char id=92   x=227     y=0     width=13     height=12     xoffset=0     yoffset=3    xadvance=12     page=0  chnl=0 
char id=47   x=240     y=0     width=13     height=12     xoffset=0     yoffset=3    xadvance=11     page=0  chnl=0 
char id=123   x=253     y=0     width=9     height=12     xoffset=0     yoffset=4    xadvance=7     page=0  chnl=0 
char id=59   x=262     y=0     width=7     height=12     xoffset=-1     yoffset=6    xadvance=6     page=0  chnl=0 
char id=57   x=269     y=0     width=14     height=12     xoffset=0     yoffset=3    xadvance=12     page=0  chnl=0 
char id=53   x=283     y=0     width=15     height=12     xoffset=0     yoffset=3    xadvance=13     page=0  chnl=0 
char id=52   x=298     y=0     width=15     height=12     xoffset=0     yoffset=3    xadvance=14     page=0  chnl=0 
char id=50   x=313     y=0     width=15     height=12     xoffset=0     yoffset=4    xadvance=13     page=0  chnl=0 
char id=116   x=328     y=0     width=15     height=12     xoffset=0     yoffset=3    xadvance=13     page=0  chnl=0 
char id=110   x=343     y=0     width=15     height=12     xoffset=0     yoffset=3    xadvance=13     page=0  chnl=0 
char id=109   x=358     y=0     width=20     height=12     xoffset=0     yoffset=3    xadvance=19     page=0  chnl=0 
char id=88   x=378     y=0     width=14     height=12     xoffset=0     yoffset=3    xadvance=13     page=0  chnl=0 
char id=87   x=392     y=0     width=19     height=12     xoffset=0     yoffset=3    xadvance=17     page=0  chnl=0 
char id=84   x=411     y=0     width=15     height=12     xoffset=0     yoffset=3    xadvance=13     page=0  chnl=0 
char id=82   x=426     y=0     width=16     height=12     xoffset=0     yoffset=3    xadvance=14     page=0  chnl=0 
char id=80   x=442     y=0     width=16     height=12     xoffset=0     yoffset=3    xadvance=14     page=0  chnl=0 
char id=77   x=458     y=0     width=18     height=12     xoffset=-1     yoffset=3    xadvance=16     page=0  chnl=0 
char id=76   x=476     y=0     width=12     height=12     xoffset=0     yoffset=3    xadvance=11     page=0  chnl=0 
char id=74   x=488     y=0     width=17     height=12     xoffset=0     yoffset=3    xadvance=12     page=0  chnl=0 
char id=73   x=0     y=17     width=9     height=12     xoffset=0     yoffset=3    xadvance=7     page=0  chnl=0 
char id=72   x=9     y=17     width=15     height=12     xoffset=0     yoffset=3    xadvance=13     page=0  chnl=0 
char id=68   x=24     y=17     width=12     height=12     xoffset=0     yoffset=3    xadvance=12     page=0  chnl=0 
char id=66   x=36     y=17     width=15     height=12     xoffset=0     yoffset=4    xadvance=13     page=0  chnl=0 
char id=65   x=51     y=17     width=14     height=12     xoffset=0     yoffset=3    xadvance=13     page=0  chnl=0 
char id=93   x=65     y=17     width=14     height=11     xoffset=0     yoffset=4    xadvance=12     page=0  chnl=0 
char id=91   x=79     y=17     width=14     height=11     xoffset=0     yoffset=4    xadvance=12     page=0  chnl=0 
char id=33   x=93     y=17     width=9     height=11     xoffset=0     yoffset=4    xadvance=7     page=0  chnl=0 
char id=56   x=102     y=17     width=14     height=11     xoffset=0     yoffset=4    xadvance=13     page=0  chnl=0 
char id=55   x=116     y=17     width=12     height=11     xoffset=0     yoffset=4    xadvance=10     page=0  chnl=0 
char id=54   x=128     y=17     width=14     height=11     xoffset=0     yoffset=4    xadvance=12     page=0  chnl=0 
char id=51   x=142     y=17     width=13     height=11     xoffset=0     yoffset=3    xadvance=11     page=0  chnl=0 
char id=49   x=155     y=17     width=10     height=11     xoffset=0     yoffset=4    xadvance=6     page=0  chnl=0 
char id=122   x=165     y=17     width=18     height=11     xoffset=0     yoffset=4    xadvance=16     page=0  chnl=0 
char id=120   x=183     y=17     width=15     height=11     xoffset=-1     yoffset=4    xadvance=12     page=0  chnl=0 
char id=119   x=198     y=17     width=19     height=11     xoffset=0     yoffset=4    xadvance=17     page=0  chnl=0 
char id=118   x=217     y=17     width=11     height=11     xoffset=0     yoffset=4    xadvance=9     page=0  chnl=0 
char id=115   x=228     y=17     width=13     height=11     xoffset=0     yoffset=4    xadvance=12     page=0  chnl=0 
char id=114   x=241     y=17     width=16     height=11     xoffset=0     yoffset=4    xadvance=13     page=0  chnl=0 
char id=107   x=257     y=17     width=16     height=11     xoffset=0     yoffset=4    xadvance=12     page=0  chnl=0 
char id=104   x=273     y=17     width=15     height=11     xoffset=0     yoffset=4    xadvance=13     page=0  chnl=0 
char id=103   x=288     y=17     width=14     height=11     xoffset=0     yoffset=4    xadvance=13     page=0  chnl=0 
char id=101   x=302     y=17     width=16     height=11     xoffset=0     yoffset=4    xadvance=15     page=0  chnl=0 
char id=100   x=318     y=17     width=13     height=11     xoffset=0     yoffset=4    xadvance=12     page=0  chnl=0 
char id=98   x=331     y=17     width=15     height=11     xoffset=-1     yoffset=4    xadvance=14     page=0  chnl=0 
char id=90   x=346     y=17     width=15     height=11     xoffset=0     yoffset=4    xadvance=14     page=0  chnl=0 
char id=83   x=361     y=17     width=16     height=11     xoffset=0     yoffset=4    xadvance=14     page=0  chnl=0 
char id=81   x=377     y=17     width=13     height=11     xoffset=0     yoffset=4    xadvance=12     page=0  chnl=0 
char id=70   x=390     y=17     width=14     height=11     xoffset=0     yoffset=4    xadvance=12     page=0  chnl=0 
char id=69   x=404     y=17     width=15     height=11     xoffset=0     yoffset=4    xadvance=13     page=0  chnl=0 
char id=58   x=419     y=17     width=6     height=10     xoffset=0     yoffset=5    xadvance=5     page=0  chnl=0 
char id=48   x=425     y=17     width=12     height=10     xoffset=0     yoffset=4    xadvance=11     page=0  chnl=0 
char id=117   x=437     y=17     width=12     height=10     xoffset=0     yoffset=5    xadvance=10     page=0  chnl=0 
char id=113   x=449     y=17     width=15     height=10     xoffset=0     yoffset=5    xadvance=14     page=0  chnl=0 
char id=111   x=464     y=17     width=13     height=10     xoffset=0     yoffset=4    xadvance=12     page=0  chnl=0 
char id=108   x=477     y=17     width=11     height=10     xoffset=0     yoffset=5    xadvance=10     page=0  chnl=0 
char id=105   x=488     y=17     width=9     height=10     xoffset=0     yoffset=5    xadvance=7     page=0  chnl=0 
char id=102   x=0     y=29     width=15     height=10     xoffset=0     yoffset=4    xadvance=12     page=0  chnl=0 
char id=99   x=15     y=29     width=11     height=10     xoffset=0     yoffset=4    xadvance=10     page=0  chnl=0 
char id=97   x=26     y=29     width=13     height=10     xoffset=0     yoffset=4    xadvance=11     page=0  chnl=0 
char id=79   x=39     y=29     width=16     height=10     xoffset=0     yoffset=4    xadvance=15     page=0  chnl=0 
char id=75   x=55     y=29     width=18     height=10     xoffset=0     yoffset=5    xadvance=16     page=0  chnl=0 
char id=41   x=73     y=29     width=10     height=9     xoffset=0     yoffset=5    xadvance=8     page=0  chnl=0 
char id=40   x=83     y=29     width=9     height=9     xoffset=0     yoffset=5    xadvance=8     page=0  chnl=0 
char id=106   x=92     y=29     width=13     height=9     xoffset=0     yoffset=5    xadvance=12     page=0  chnl=0 
char id=67   x=105     y=29     width=12     height=9     xoffset=0     yoffset=4    xadvance=10     page=0  chnl=0 
char id=94   x=117     y=29     width=9     height=8     xoffset=0     yoffset=2    xadvance=8     page=0  chnl=0 
char id=44   x=126     y=29     width=7     height=8     xoffset=-1     yoffset=10    xadvance=6     page=0  chnl=0 
char id=61   x=133     y=29     width=10     height=7     xoffset=0     yoffset=6    xadvance=9     page=0  chnl=0 
char id=43   x=143     y=29     width=10     height=7     xoffset=0     yoffset=6    xadvance=9     page=0  chnl=0 
char id=39   x=153     y=29     width=7     height=7     xoffset=0     yoffset=3    xadvance=6     page=0  chnl=0 
char id=96   x=160     y=29     width=7     height=7     xoffset=0     yoffset=3    xadvance=6     page=0  chnl=0 
char id=34   x=167     y=29     width=12     height=7     xoffset=0     yoffset=3    xadvance=12     page=0  chnl=0 
char id=126   x=179     y=29     width=12     height=5     xoffset=0     yoffset=7    xadvance=11     page=0  chnl=0 
char id=95   x=191     y=29     width=23     height=5     xoffset=-3     yoffset=13    xadvance=14     page=0  chnl=0 
char id=46   x=214     y=29     width=5     height=5     xoffset=0     yoffset=10    xadvance=5     page=0  chnl=0 
char id=42   x=219     y=29     width=6     height=4     xoffset=0     yoffset=3    xadvance=5     page=0  chnl=0 
char id=45   x=225     y=29     width=9     height=4     xoffset=0     yoffset=7    xadvance=9     page=0  chnl=0 
kernings count=15
kerning first=89  second=65  amount=-2
kerning first=89  second=78  amount=-3
kerning first=89  second=97  amount=-2
kerning first=89  second=110  amount=-2
kerning first=121  second=65  amount=-2
kerning first=121  second=78  amount=-2
kerning first=121  second=97  amount=-2
kerning first=121  second=110  amount=-2
kerning first=86  second=65  amount=-3
kerning first=86  second=97  amount=-3
kerning first=87  second=65  amount=-3
kerning first=87  second=97  amount=-1
kerning first=119  second=65  amount=-3
kerning first=119  second=97  amount=-2
kerning first=118  second=65  amount=-2
kerning first=118  second=97  amount=-1
